10
0.005
false
10
0.305
false
10
0.605
correct
10
0.905
correct
10
1.205
correct
10
1.5050000000000001
correct
10
1.8050000000000002
correct
10
2.105
correct
10
2.405
correct
10
2.7049999999999996
correct
30
0.005
correct
30
0.305
correct
30
0.605
correct
30
0.905
correct
30
1.205
correct
30
1.5050000000000001
correct
30
1.8050000000000002
correct
30
2.105
correct
30
2.405
correct
30
2.7049999999999996
correct
50
0.005
correct
50
0.305
correct
50
0.605
correct
50
0.905
correct
50
1.205
correct
50
1.5050000000000001
correct
50
1.8050000000000002
correct
50
2.105
correct
50
2.405
correct
50
2.7049999999999996
correct
