2
0.005
false
2
0.305
false
2
0.605
false
2
0.905
false
2
1.205
false
2
1.5050000000000001
false
2
1.8050000000000002
false
2
2.105
false
2
2.405
false
2
2.7049999999999996
false
5
0.005
false
5
0.305
false
5
0.605
false
5
0.905
false
5
1.205
false
5
1.5050000000000001
false
5
1.8050000000000002
false
5
2.105
false
5
2.405
false
5
2.7049999999999996
false
8
0.005
false
8
0.305
false
8
0.605
false
8
0.905
false
8
1.205
false
8
1.5050000000000001
false
8
1.8050000000000002
false
8
2.105
false
8
2.405
false
8
2.7049999999999996
false
